TargettoLycca 3.4m
DiTg 1 (20,20,10)
DiTg 2 (20,0,10)
DiTg 3 (20,-20,10)
DiTg 4 (0,20,10)
DiTg 5 (0,0,10)
DiTg 6 (0,-20,10)
DiTg 7 (-20,20,10)
DiTg 8 (-20,0,10)
DiTg 9 (-20,-20,10)

SiTg 651 

FPD 201 (0,0,3100)
DiLy 401 (-51,-113,3390)
DiLy 402 (-31,-113,3390)
DiLy 403 (-11,-113,3390)
DiLy 404 (-51,-93,3390)
DiLy 405 (-31,-93,3390)
DiLy 406 (-11,-93,3390)
DiLy 407 (-51,-73,3390)
DiLy 408 (-31,-73,3390)
DiLy 409 (-11,-73,3390)
DiLy 410 (11,-113,3390)
DiLy 411 (31,-113,3390)
DiLy 412 (51,-113,3390)
DiLy 413 (11,-93,3390)
DiLy 414 (31,-93,3390)
DiLy 415 (51,-93,3390)
DiLy 416 (11,-73,3390)
DiLy 417 (31,-73,3390)
DiLy 418 (51,-73,3390)
DiLy 419 (-113,-51,3390)
DiLy 420 (-93,-51,3390)
DiLy 421 (-73,-51,3390)
DiLy 422 (-113,-31,3390)
DiLy 423 (-93,-31,3390)
DiLy 424 (-73,-31,3390)
DiLy 425 (-113,-11,3390)
DiLy 426 (-93,-11,3390)
DiLy 427 (-73,-11,3390)
DiLy 428 (-51,-51,3390)
DiLy 429 (-31,-51,3390)
DiLy 430 (-11,-51,3390)
DiLy 431 (-51,-31,3390)
DiLy 432 (-31,-31,3390)
DiLy 433 (-11,-31,3390)
DiLy 434 (-51,-11,3390)
DiLy 435 (-31,-11,3390)
DiLy 436 (-11,-11,3390)
DiLy 437 (11,-51,3390)
DiLy 438 (31,-51,3390)
DiLy 439 (51,-51,3390)
DiLy 440 (11,-31,3390)
DiLy 441 (31,-31,3390)
DiLy 442 (51,-31,3390)
DiLy 443 (11,-11,3390)
DiLy 444 (31,-11,3390)
DiLy 445 (51,-11,3390)
DiLy 446 (73,-51,3390)
DiLy 447 (93,-51,3390)
DiLy 448 (113,-51,3390)
DiLy 449 (73,-31,3390)
DiLy 450 (93,-31,3390)
DiLy 451 (113,-31,3390)
DiLy 452 (73,-11,3390)
DiLy 453 (93,-11,3390)
DiLy 454 (113,-11,3390)
DiLy 455 (-113,11,3390)
DiLy 456 (-93,11,3390)
DiLy 457 (-73,11,3390)
DiLy 458 (-113,31,3390)
DiLy 459 (-93,31,3390)
DiLy 460 (-73,31,3390)
DiLy 461 (-113,51,3390)
DiLy 462 (-93,51,3390)
DiLy 463 (-73,51,3390)
DiLy 464 (-51,11,3390)
DiLy 465 (-31,11,3390)
DiLy 466 (-11,11,3390)
DiLy 467 (-51,31,3390)
DiLy 468 (-31,31,3390)
DiLy 469 (-11,31,3390)
DiLy 470 (-51,51,3390)
DiLy 471 (-31,51,3390)
DiLy 472 (-11,51,3390)
DiLy 473 (11,11,3390)
DiLy 474 (31,11,3390)
DiLy 475 (51,11,3390)
DiLy 476 (11,31,3390)
DiLy 477 (31,31,3390)
DiLy 478 (51,31,3390)
DiLy 479 (11,51,3390)
DiLy 480 (31,51,3390)
DiLy 481 (51,51,3390)
DiLy 482 (73,11,3390)
DiLy 483 (93,11,3390)
DiLy 484 (113,11,3390)
DiLy 485 (73,31,3390)
DiLy 486 (93,31,3390)
DiLy 487 (113,31,3390)
DiLy 488 (73,51,3390)
DiLy 489 (93,51,3390)
DiLy 490 (113,51,3390)
DiLy 491 (-51,73,3390)
DiLy 492 (-31,73,3390)
DiLy 493 (-11,73,3390)
DiLy 494 (-51,93,3390)
DiLy 495 (-31,93,3390)
DiLy 496 (-11,93,3390)
DiLy 497 (-51,113,3390)
DiLy 498 (-31,113,3390)
DiLy 499 (-11,113,3390)
DiLy 500 (11,73,3390)
DiLy 501 (31,73,3390)
DiLy 502 (51,73,3390)
DiLy 503 (11,93,3390)
DiLy 504 (31,93,3390)
DiLy 505 (51,93,3390)
DiLy 506 (11,113,3390)
DiLy 507 (31,113,3390)
DiLy 508 (51,113,3390)
Si 601 (31.125,32.125,3400)
Si 602 (31.125,-32.125,3400)
Si 603 (-31.125,32.125,3400)
Si 604 (-31.125,-32.125,3400)
Si 605 (-31.125,-95.375,3400)
Si 606 (-31.125,95.375,3400)
Si 607 (31.125,-95.375,3400)
Si 608 (31.125,95.375,3400)
Si 609 (93.375,-32.125,3400)
Si 610 (93.375,32.125,3400)
Si 611 (-93.375,-32.125,3400)
Si 612 (-93.375,32.125,3400)
CsI 801 (-11.125,-12.125,3405)
CsI 802 (-11.125,-32.125,3405)
CsI 803 (-11.125,-52.125,3405)
CsI 804 (-31.125,-12.125,3405)
CsI 805 (-31.125,-32.125,3405)
CsI 806 (-31.125,-52.125,3405)
CsI 807 (-51.125,-12.125,3405)
CsI 808 (-51.125,-32.125,3405)
CsI 809 (-51.125,-52.125,3405)
CsI 810 (51.125,52.125,3405)
CsI 811 (51.125,32.125,3405)
CsI 812 (51.125,12.125,3405)
CsI 813 (31.125,52.125,3405)
CsI 814 (31.125,32.125,3405)
CsI 815 (31.125,12.125,3405)
CsI 816 (11.125,52.125,3405)
CsI 817 (11.125,32.125,3405)
CsI 818 (11.125,12.125,3405)
CsI 819 (-11.125,52.125,3405)
CsI 820 (-11.125,32.125,3405)
CsI 821 (-11.125,12.125,3405)
CsI 822 (-31.125,52.125,3405)
CsI 823 (-31.125,32.125,3405)
CsI 824 (-31.125,12.125,3405)
CsI 825 (-51.125,52.125,3405)
CsI 826 (-51.125,32.125,3405)
CsI 827 (-51.125,12.125,3405)
CsI 828 (51.125,-10.125,3405)
CsI 829 (51.125,-30.125,3405)
CsI 830 (51.125,-50.125,3405)
CsI 831 (31.125,-10.125,3405)
CsI 832 (31.125,-30.125,3405)
CsI 833 (31.125,-50.125,3405)
CsI 834 (11.125,-10.125,3405)
CsI 835 (11.125,-30.125,3405)
CsI 836 (11.125,-50.125,3405)
CsI 937 (28.125,92.675,3405)
CsI 938 (-28.125,92.675,3405)
CsI 939 (90.675,29.125,3405)
CsI 940 (90.675,-29.125,3405)
CsI 941 (28.125,-92.675,3405)
CsI 942 (-28.125,-92.675,3405)
CsI 943 (-90.675,29.125,3405)
CsI 944 (-90.675,-29.125,3405)
